{
  "particles": {
    "number": {
      "value": 20,
      "density": {
        "enable": true,
        "value_area": 800
      }
    },
    "color": {
      "value": "#ffffff"
    },
    "shape": {
      "type": "image",
      "stroke": {
        "width": 13,
        "color": "#b11f1f"
      },
      "polygon": {
        "nb_sides": 6
      },
      "image": {
        "src": "https://dogebae.onrender.com/images/bone.png",
        "width": 900,
        "height": 900
      }
    },
    "opacity": {
      "value": 0.7536036686067957,
      "random": false,
      "anim": {
        "enable": false,
        "speed": 2,
        "opacity_min": 0.1,
        "sync": false
      }
    },
    "size": {
      "value": 18,
      "random": true,
      "anim": {
        "enable": false,
        "speed": 40,
        "size_min": 0.1,
        "sync": false
      }
    },
    "line_linked": {
      "enable": true,
      "distance": 176.3753266952075,
      "color": "#22b438",
      "opacity": 1,
      "width": 1.2827296486924182
    },
    "move": {
      "enable": true,
      "speed": 4,
      "direction": "none",
      "random": true,
      "straight": false,
      "out_mode": "out",
      "bounce": false,
      "attract": {
        "enable": false,
        "rotateX": 881.8766334760375,
        "rotateY": 721.5354273894853
      }
    }
  },
  "interactivity": {
    "detect_on": "window",
    "events": {
      "onhover": {
        "enable": true,
        "mode": "repulse"
      },
      "onclick": {
        "enable": true,
        "mode": "repulse"
      },
      "resize": true
    },
    "modes": {
      "grab": {
        "distance": 400,
        "line_linked": {
          "opacity": 1
        }
      },
      "bubble": {
        "distance": 400,
        "size": 40,
        "duration": 2,
        "opacity": 8,
        "speed": 3
      },
      "repulse": {
        "distance": 200,
        "duration": 0.4
      },
      "push": {
        "particles_nb": 4
      },
      "remove": {
        "particles_nb": 2
      }
    }
  },
  "retina_detect": true
}